Name               Stmts   Miss  Cover   Missing
------------------------------------------------
display.py             5      0   100%
fizzbuzz.py           10      0   100%
test_fizzbuzz.py      21      3    86%   12, 18, 24
------------------------------------------------
TOTAL                 36      3    92%
